Alkalmazott Elso;1983.04.26;2006.10.22;999999KK;Programozó
Alkalmazott Második;1972.10.09;2000.04.03;888888KK;Programozó
Alkalmazott Harmadik;1988.05.02;2009.10.01;777777KK;Programozó
Alkalmazott Negyedik;1985.09.11;2002.03.29;666666KK;Programozó
Sanya_01;1981.01.01;2001.01.01;111111;igazisanyi
Sanya_02;1982.02.02;2002.02.02;222222;targoncás
Sanya_03;1983.03.03;2003.03.03;333333;horgász